What the Package Does (One Line, Title Case) • ggtemp
…
}

mtcars |>
  select(x = wt, y = mpg) |>
  compute_oval_minmax()
#> # A tibble: 101 × 8
#>       x0    y0    rx    ry     z around     x     y
#>    <dbl> <dbl> <dbl> <dbl> <int>  <dbl> <dbl> <dbl>
#>  1  3.47  22.2  1.96  11.8     0 0       5.42  22.2
#>  2  3.47  22.2  1.96  11.8     1 0.0628  5.42  22.9
#>  3  3.47  22.2  1.96  11.8     2 0.126   5.41  23.6
#>  4  3.47  22.2  1.96  11.8     3 0.188   5.39  24.4
#>  5  3.47  22.2  1.96  11.8     4 0.251   5.36  25.1
#>  6  3.47  22.2  1.96  11.8     5 0.314   5.33  25.8
#>  7  3.47  22.2  1.96  11.8     6 0.377   5.29  26.5
#>  8  3.47  22.2  1.96  11.8     7 0.440   5.24  27.2
#>  9  3.47  22.2  1.96  11.8     8 0.503   5.18  27.8
#> 10  3.47  22.2  1.96  11.8     9 0.565   5.12  28.4
#> # ℹ 91 more rows
…
